                 _                                                      _               _              _    _  _                         
__   __ ____  __| | _   _  ___  _ __   _   _         ___   ___   _   _ | |__    ___    (_)        ___ | |_ (_)| |__    __ _   ___  _   _ 
\ \ / /|_  / / _` || | | |/ __|| '_ \ | | | | _____ / __| / _ \ | | | || '_ \  / _ \   | | _____ / __|| __|| || '_ \  / _` | / __|| | | |
 \ V /  / / | (_| || |_| |\__ \| | | || |_| ||_____|\__ \| (_) || |_| || |_) || (_) |  | ||_____|\__ \| |_ | || | | || (_| || (__ | |_| |
  \_/  /___| \__,_| \__,_||___/|_| |_| \__, |       |___/ \___/  \__,_||_.__/  \___/  _/ |       |___/ \__||_||_| |_| \__,_| \___| \__,_|
                                       |___/                                         |__/                                                
